000c4cbeb06173ebd8a97830f15bdf6b3fde5f0d 88e998e56e81c794983639aecd44884c8d680f9f
028e6062b7ff7c8aaecdff6fb07e447b8c4a295f e21f577ae0932d7c1cdd0ad8044e5d18047d6e4a
031c4517c22db2f6f274b8e20add605a92504bb1 a4c08e626bdc4049f1c2a2b577212763559f9cca
04f0bcf67e4bd0cf6ebb8f64064ae22881ea19ba f7116ac026e20a8d91d387680ff11e6be7bda649
05246076c94b4aeca32f7b3f5cbc4249e5a6829c 84e803b74b3ad0d28c05df58286015769ab9456f
0532f45238eb9e0d950e237e229545d97d10b55a 15def48c591641bbcab849de0dd84af9a6848600
058c7ef41a3a3a43614e214b5d45cf84794384de 1f7b23dcd605825fd7727f19ec5067313bf236e6
05b5b295181f1d1aedc2443f794df4cb13346781 9b1d9f7d809bb14f2a15c158edf3cabda27988ba
0af6b322460cc63cfc08d416da53d16986426146 d265e01833c1fd893905c357aa14401357520d22
0b225f6276db5606dba85d53f188d1dd718ae6ab 3b73e4761b08ac8e3a3e54d209f29d929ab9547f
0de173a6e37fda324861819f2bd364807adb7657 8eefbfba91b2ac586a436c4631be7ae709a3d54b
0df3746f46036c784468ac0e8777c691d10e07f6 05a2cbdebea6ca07c91997538bf3433754a411f3
0f1fe2f721a6c244f230d63fdd8c943eb4e5ca36 93e984a8047c6f441bc61b0c3e416f248a1a2f6c
100121bc0c06981352f7b743bf5aebaa523b3178 65c0597622803764941351bc0147d39708cd67f6
102e68bf3ee7cc9c29c2817ad9d92e5ad39057c1 ab0460986ef49d435a0012b1a73f9f893c0a336e
1172614dc1850bb1bef8fb29af316b89a6dfe34d 4291b1b8bcdab4d1f88972b13de6aa028d0f6b6c
14d8e28de39c04662893aae9cd23790432c9f3f5 c3a5540bb4f428211b89a55f6e73142af530bad1
15b18ef2c60ddca20acfe38c89983af8e9f936bb eb70634318de3b97d4d15790c715ed3813510c68
15ea5284aa89f6be808373e5ec547ab4bb968492 74ee50540615155bcc443c96056f0d49dc11f578
17090d79be9860eaad9600dd5d66f78317b2d90a 97b94443d886e847f5d0075750e25f5712839bc6
192ec5ca6614d0b9bf2210c1dd5a1315c0418cad f35be0afb8a35abe1f81ff4a83a3d9bb20cbefa7
19b81613f75d9fa9a7badd57f23e278b825a3fc9 ce8cda50ca2ebf03745fd018caeca9437491ab61
1a0c885a6ec3d6fbf6c4268f91df39a2651e334d 97c3c218f9c0fdaecc75c17311eea9111f8dabdd
1b93da8dcf9d06febb506290f67a8986038ef5a9 56f3d190e901f2d11f16d7a7bb783c0429ceb05b
1c8823e525dcc72df326c47db96b4188af3b2239 ddf2673e771c3b6d4adca96c65a32ac3166b4360
1d5574025866b5ec5ac7ef570e0890070505e1a8 818f6e087069c24fc4ce736273c45c9b1ab7ef64
1fe349a112fbe4959aebb8ec86bcf7577ed5d47b d4d3ada5037c0a0643b0698ca0bb45efa590a06a
20292dc3d2cb33ef73b39ed62c4091665c811201 6891f847fb3ab9630e25369fe42aa96c84b2f20f
202950ef13641c7eedd8ac80ed04e2e76b5ed912 4f2213559f611268be49a54c29315c963067a53f
2267dcbdd24cb768aa6ceca08c6b142b8aafd25e 875e6c7c754d7bcc4ef98427579894d36af67808
22efb003be08ac8260c6d22e5c000bef24bedbf9 94d1c3c5860606601d4f32195278ebba8c81d0ab
247b1f1ded29ea160740884e55e8f87cdcf86648 6a7e5226dbb9e411a7f4dabd24ff3db8aba36e63
24916d1083da61625ab9131aec10475004303943 f9d2821e0fd8284f6dba1fd0cb46476b563dce13
24d72a94c8b28a53ecf035e266dc6cbe813c0a66 d08e44e7af2332f18a56fad08f1c9db6c252184c
2674fc380c0ceac701ed472ed3c73cdeaf965645 6e8ab40ccd51b30051aa13fb2ad620c50bad7dea
2774000406c207a89d306e1499255b04ece0ceae 842fc78b3de867138c8648350b1ee6fec7743ecc
287180988d22523e4c2945c864c43d2029fb633d d4e3f658ce39058670fa78fc8e6928b77333fcc0
2949eb236b932344aaa474152d68258bbce5f5bf 5dd10778b74eb02f686a11463e1b754e7f7db419
29cb344db28a806fa3840f41cd86cb28c4d11ea8 1ac0f35c346e915d6d343fc52132a71132ca6363
2a6e57100375eabc5455aba68adf9e329175d3e8 7b2c99115c6262f4b66ef880af713df689f28321
2a7d2762651c17fb0a1a69a55af441279c730c45 19af3a26ba34241bcec4fa7a0f16a11010842d6a
2c10175f7f87f59d581308ba65a351a650a2c97c 4d15604031b6bd3eb09cc6023c697bed19b39669
2c4ee071a7267c01aa017681243bcc1a73511a8e 964485cba4d7d8ec8e1ffad8e40b756482e4ec73
2c7f0cd6ac3241cc079d6846cb9f91ecf4bd9401 965139efd7e951b8cc91b22e05c691dfda7a57e2
2e0a53978f1f22f0dc03cb2aa78260113da14546 3b9e207281289b194c17f0c47a65651d79eb2781
2f87e2946efa0257f6897240aa3ffe5fe9d01b98 6cd402105d09a180cffd38e0f7c59808612901e3
3054cbeb407e5822573a7e8aea74237dc22cbcf3 666e64754054e2b11d7b5dff6e3508f91539afa9
30f16309b4dd83014f06b5c1b4a5228228e48f7c d34f091a7667a0888f48d3f88e018005685d6255
30f9ae3ca3d4775e5dd4b5bfdebaa05fec942ef1 742b781972c20879583239ce0983ea07a0dd7a97
326a85220e4cdb985fdde655c0fa5c5576ea195a e90a442271d02f46fc7d91aec801cc973f5aa662
367607ec92f0ff553e396c544bb14a80d6c4bf23 aa09c8ae45e3c764ff91eb60da0a05777e78a505
37bc93b935e73bb0e4505848e30aa338987fae99 902dfe605d6761724e2509905556a6487119c484
3a0c099316ade0b3736633dc36551530056e4a44 df62f96cca72e018dc4fdc4b789e337574b0c1b2
3ab7a80a537e59a25cda89ce0706117080aaa8d3 231d23bce8104465f4d27f0721f09ace6646e7b3
3bb1416b3d5174d87a3460df7add3bb8f7773852 5ac3cb03a78fd15e82faa44e4d792fc79943d00f
3f6f077ec07085abd824d3161b70427f2fc3c98f a12fe305221011b119c4920228986a07ce3f302d
3fb872b1b878fd92165a36d0397c1d78bcb836b7 9e373ac8b7310366eaf1e773d1b49c8539522ca3
3fe8cd26744f0316c3ed5591d1feb3fabd5de25a b63d30f81142431edb80621a8bbeccba0989c1cb
40d29e7ff92caa8fba188d29e8107e25ce434b67 d55a61e372b359242f37f6418af921fb6fe35795
41677ea5e80a90a4ff66020b4b3f16a46c4b78c0 ad9ba17b1ed17561aa3d22b33b3410ccbdfcbb6d
42de670954a2d2ff8d9937a9493ad84e0fdcb67b 6675275be917ab0c2f28734d23d790e1f39a037d
4380cc754edf0e9256743c709128a4eff96214a0 5599e6009489df7db10093b0e792abb8221a16f3
440b9fb40f55226c251179e4299bf4d6548a3c91 870fe071db6ae414fa65ed9c4d542fb7593118a6
4647515db5708973dc5aa9b666f00ed667ddba83 94db8921c222e0832652aeceef243fced02d5454
499eaeeeb9af519d4d88f5d2627a3fc34c354b17 98bc9931b1d7e09c5f8d13408acf78c8aa811c00
49b923b90043289c40041db1684e75779d180319 47dbd36679193df87ad9c9bf4f7e1107046575e2
4a02a5155fbd1fdaeee460c18ca8e2a019104324 367f9665c06c5c04d9cc45a33bd68151431ca9d7
4a15f5c41f219f0ef56e03fd3c41c34cb0993902 f9e4a8df1678bf46a1db218183e6c14a6802496a
4a44ac6cd1cb95e038d56cf4f9123101e2674a61 5ea4ad483ca9e044b634879ad3567c3b0e52e64b
4a60cfa670d111e351de9af27bee3c658cb500cd bfc935b820f9348c812b428e8f9a31be506174f3
4c9dae6fe5d4c68e225b97aef8c887c7e00876a6 79b017da29dc5407e6820be181cc3a40e5f9c548
4d4f0ae00fecf240334187cd4ef618581d220ad5 bd499ab23209fe12a456efd4e9926268778d0af4
4d8c7475bbe616730f9c2aa6f52b59365ae6328c 704dbf33ba72d42a7a45833da793f551f9a759f3
4e16e505f757069935e45b34f0290a8a13b53898 f700d34c70803838034205d475bba4512a96f9b6
51c9fb5a93ec75785d12e3fed272628467346d11 9e541942ccf0dfe2d6719738d1bc83e5fc8af313
523357a69d35f235d0895a810c7b022eb89001ad 5de1e49735ec3a939054ae665eab6d92a4cc46be
52d883ae85d244af008476f0a5e80a5fe8bc87bb 651481508d1f1d625c9d9bc49d6c39abc494e1e6
530690bf01f105a8cee5b32074a010069d63560e 41a7bed24bb100e54351a47a8160ce858f7cf5da
53ee39bac99ee2ad6c6a826c5561f6eedc8117e8 ec8421c684b89071d673746ac3a4e6f487fbbe76
54d1d8b6062478d704b5f2b7dd2717ef2f6d8a23 9b13f42dd08fc92382b7c44a981561e4169e74aa
55278c149eaa3cc5494980da1ed2272d9936be80 70591abd44121b0f1aa7743f67d9708a6c5e48fc
55c7659e9918aeec91be576b1f7011081c75fa5f d651158bfe7a9eed70a1ea150ac352575bddde7a
577c170bbea4be5e2455cad787294b3c16a88598 64762fc5bb2fbacabadb4ca169bf2875b5e703eb
57a78df92bb7beaad4f947eaf74a1464bc8d2c47 a590be2dd58cddc235ae0e3ad97727ae90df14c6
583e03ca80554490527a62965264b026556332f6 98f64c22c5a9fd736d939f3e682f838e83ec6e17
590fb71a25d386a3b407db8d929c5f47658af466 1be534f12570e6f28e508295f65c1caebd36c2e8
5976d48f75c04d099b53b07774cab20805bebe34 05eefeb920f4207b3859375f9b989bf8bf6d7be1
59bdb610ba81d7e55a2c089fd5ea4353b78dd43b ee3363acadd6e9354a8d249491837ddadc4d6845
5a36e6fd2f21df8aeda88ce8703a9a60e4a5acf6 2ec971fccb34a2aab3481f777b186a45c7cc62b9
5ccbae7639f674d71f89b7aff51f94ba3f3f6989 3fdc2deed9afb95660ac4424325dcfe13389f583
5ebc9dd571e8b5bc4113a8003211599c532e97db 9330fe437c28b6b76b5898763a3e46a21ad8c37e
6039c2b48434907158122d70d4531264b7f0a303 c4c6239e286195782fb2b7690dd4cd539ea01271
60681a824edb2d341d7657a378b657db65a71f34 8e1d32b25a1cad04c974a618b5de13c9965240ee
61732e72aaa15a8338aff96ab6e0e6967d3b9f0d 0aa6350583ecfe7656f971feafabb22fc1f49c28
61d89c9812fe2d783a91458f25585704235bcd5b 00269dd53027c78f264e06a079fda3176827cd12
6286653d41dfd6a54f5e9acf5939f8a8644726b7 88c4bedcf105eaf1567b7c234d70563d4d4f53e7
63714c869ca630ea65c533995dc21052d294a9e1 496e2e3615545e43aaea54effff653ac841a13de
64cd2411674478950fd2a26f1e95b156f6d080b7 b9f8b759cbc123e07d995a691c10c8b07af97534
6710c1d172582d0f945bd7b54a94776973a8c4a0 ae3cfd3ee723efde895d41c47e7dc0d4d9c82186
67975e0231adb4422567b6aa7a6cd4e4f6e07269 f3194ef6d1dece1017461e060be21ac234fb26c7
6b3c58226580be5175523c1d97cf6e8cacdf0298 8ddc62d04dc77e62529864bdc650fda96482524f
6b638838f271bd2e0fbefa46c1ff96945ef55e4f 17cb447e7cb5fd77d0b2fc17b18fe08a869164ee
6bbc764629e20e2ba68396c4a4c1c0ef0b5e9108 573044336c41c788f2e152ecde5012973869ddf5
6e77070d5539ec481e7fc0f8c929c88d45065ea9 e74a9626952f00e08b1d8473609188a4724cd91e
6e92ec7179f809dc6ba1c49e9c36f93d653e5096 fbd7b9139ac505149608d76eab7f0ed93b16863a
705c04b41cee0f7fc2889c630f282fb99b569281 cc7f4272199c3c7562e3e812aa5a273293f8dd8c
7122e1a92623867e7c49e07c80419a884de8af47 eb68588ea8aa5aec639620fdd7b37d22edefa634
715cd85f3f84a1f1cf303c9247958c5dc800358d 5388b780a1cc5837cc7835b1a176cdca5de1c5e9
7305d07a8497759436e25f924e7f7d1c36ef3587 62b68c8c6994920f398f65b1855083432bf4f020
75f57978827dc83aa5b2d10127758acdd3fe3643 412a2643d9bd63359e23d4285515c9d65cc86043
76b30f11cfb0e28acebdf96f2b52c13ed94e5ba4 cfd460483d070ef76ff59ec1b0b3913610dd5fa0
7a643b6f65c0223cdcdcbd0d02f44d7f41bd0760 7050f7b626d6a985c82a7a84e39dcfd51eea671b
7a87a6311c36e2cc1abef795609ef70a79af6de6 cac68635e39407fd6ce293944e299f6324457dd6
7b344f8f5d15d3805885f8d51aa8cb10f4fb5ade 762b44179f8eb52380c2f7b6fe88c4c7e4c28620
7be02f4452fbe7de232107c5c8e8d16a50284cb3 4b3ce9e9308d4de89ae8f8ba9e827e67b5193c01
7cba99daaa1bb9d2afc40722eb9e26a61841abde b20e999b1dfe66b8c2bd00ac48d121803a24700a
7e4d7ea475e4d2e87486a3d98b5c6e9bf0cbc963 781a08a781c2445248fd33ad270380d8eeb8aa56
7eba8281c5cb230cbce2b9377b6fc7eda826cb13 34c812ebe65d9b9b01caf536f630f5d0e5a876e9
7fd4fa44ae6cc38597553b5413fc412c1304dd16 79bf81ccfc7299b78ade1e895b4a3bd17e0588b0
80c45144339392055d88d479bad20c8d59cb59fa aa08c3180a1ebe52924e1197054974ccb2589b3a
8103dd2e1d6aacb4a48f45deae8531a34404ae1c 56d0af1e9cdcf0374599519994a02a8c79c07a0a
87ace4b1d64012863b3dd9a07d50c3074bc737ec fa86415ac05734a224c7b86a3a2501d42c8cd86b
89312ecf3b812b4bcd55f1fdee152d4f50e9ccb0 db7752d14528311fafa43374c56298f598b37e67
8935a8f402980f63874bca1839df28f8d9f9ee36 666807af0a012e50ed62fb4e4fce1817046ab9a9
8a2a8e87f78810ef6af3901df2078c221f4eb057 64fbca972d801da9fd0e9b203e7d70fc4df57af2
8d6a64e70e6b04c404aa4ced270c5b579bcbb6f7 0e7c73758c2009a563edd0db5bca41ef7c05841f
8e68db575e1407a818203b8cbc5f8783baff6fbc 49a8e311d479f038c5888ee1ddf4d324a8aae9ed
91e39ca260b3fae124b457d8e5e291b5c20d6ce8 abb27e61b54c5349d6ab274f4628221ba01efc73
9228f7add545d2d2e7d547e306317f5e954295ef 9f9bae0b83b479834297fef758fc314d667505f4
929d51bf0a21369a1da8e29e9d48920c1c15a1df 5d184a22432d2478a2e0bdbf40eebcc42fc282cf
92dc91caca32ab71311dd32ad7a364e8fabbd4b9 9ab4bd474653e835921104735c34e12ca44ac76a
93dc31be195d013327fc497588d041b4e42b2889 9b1dfd301f49a2ca532a7c4394eea43e2a751e67
9414fce2e929637ef3ac173ae2b70503c5b64151 7cbd0c5c8cd8eaf0b02f12abe4aed350628b7d75
948c455feec893971f9f0cd15222ed007e834a19 0fd3b457d5f4c91093014a86010e1a58b240b57b
953aab82ddbc783b02fe69d70946ec1ecb174c95 503cb3b15f58f87e1b3f9071c03aca6d51631ee9
959c1df4826e87c0ab376662b33695e1f9c6d911 56a24fc8f1b7c0bb153a6005a9714eccbbba7990
962ee9575fc04d1bd8da9ca06f552205af423b00 ff6b3511ba46ad6aa2f123da49bc5334be56eceb
990f4449152f4256ab8c91f496bde994233666a8 269be3975680698f2e2f6d1caa6268387cf9df3f
99384ce4a4220616cd018618b725ae05c84b31e1 87b72d8a31a58a0e524b275c24d7814c4ccfab51
9b2bd3544840b74c452c968515071ba435615756 56657d5352e38fba7f2aa1f090c920f9a7fb550e
9bdca404b07fa2aff570e740bb1cf3e78124d19e 6d462ea95bdf8def3b794c03787a95573f1cb254
9ca825d68a0baa29096fb2451d5ca5c31d5624ab fd2e1b95b6beb5b5a4e7e1d707426f686eaa9539
9fa490c54ca91438b2f385b2d9f2ac0e7373a5b3 2d62df24bc9c7bb29d9f383a4bc9343850a7f42d
a29a83b0a03784b39bd8e9437c51db60c0d2846f 07343f6b1ed7127bb244a195a29ea445c10f0404
a2dff99666d17afda6a9c0e021675086998af015 388fd6bc17d0f2e37496433c962a34379077df3c
a3d9c337ad6a414dcee7cd771a9989f87cf9fd76 635c69e7d709ed6ac53f04286ebdaa60135eedcb
a647b327872259ee7365758c08d5351913d1c2a3 dccec1ba91374a221bfe90248ee9a82d145f7292
a6bfdd6706778778e952b1d75c0c84b716d7b2c2 dd3c93b88265261a6ae343e516cbd15606bbd42e
a8cad00238fdcae0962776c2e32870193a98004c 0962207a124d586a220125a515f959de3dcf4d76
a96842bfd779e15c009406bd62e7cb60811b4426 cd22f7e2bf2a9b162cc956281e3f0c3b655f6b63
ad2ac41a9cc1e9e9ddff16caf11bfe7ad6d405cd 21bc7bbbbfdb89cd710e5ad8eaad256719a44bdd
add46ea57fb513fac34288058b224227399672c1 a522f730a28e9a537c3f319ea3146ccb6ad20ddf
af6a79937a19fcbcd3bfbea293d1958945c304c5 d71d334d6e8fdc0bc330cf3b08370f0102e171b6
b0f1a7c680a3e077c95073a7a1c6632d130a4f60 88bfc511257df1c5cdbcd6d4e7660a36f9adf953
b2305c391158685fa92ae91c16a7791a78af3153 3278927a87fdd0aaccb1e1a01f27798c9a725de3
b2fce903dddac458d44742b34112d6d0a32b7297 4e18c4cbe4fc5cfa0ab4ab9feef71944e557a3a0
b483d298ca7166dd637111fd34473f4af32b6724 2f41d59dd9c3b4abb7984539a673928bd942461e
b86dead1f719398bb552529056704a62be9c1c31 818931b5612aac8b5786a8dc6ca4f68d9d39775a
b9d4f5be5890e5f3676ccb3cba642340bdb2358c eb1e8628f10e179f28fedd53c2c2c0640bd7b986
bab4314384bfc991c386dbc7fd67449a43177b3e 6237a5840947bf5402d288791cc40cf8aa9d474d
bc6208b3961944bb4852857f7b28cefd2dd449d4 46d19d442f47d321645bf30a3c18c02ff46064cb
beb39f30cd8ae88bdbdc66064fc92fc05c406252 0cba1f7be6ef25b4c9c816a57cf6f3757fff4dd4
c05877b74a7bc258d8b6e709ea7423367ca1abad c9ef354d3ac6019bfd327470db51e6192d5a9322
c2384103f082a1c7d262021a0fa7ea16383bc30d 222d4030e17a2b7beec7c7f263b186903f66ca34
c3c00509ad8fb313b4e50c4d7c5084c700ee4be2 f9163b2007804891c0ba2b161ebe3ab2d760f12a
c459532ea0148918eb606c8ec6da2aa8128cf8eb 50caad03121c3649f4fe6ccca05759d1aea1240a
c52566309fb0f18e8c1a2e45ee2af08f4530af12 4f71ac1e1487761fd7c7ad5a030ffe3749134447
c5437e6d9a613c849ab48b95386dbd175a3738c0 cf210b2820aa59b4676380e84ddc6effbca7e5fc
c55024b5b2be294213ee359a0c261eafd3ce7cdd 3ae90b059d2251dfe351e9f72092be5064ec9166
c6c48ba1d4abde10f81f600539ee6913de871ffb 9bfb9848d732d021f2c1644c06dbcfc08fe514e1
c7bfed223aaeaf16a3813c0a145a976ccc4f2900 fecd5bd75b7b099d88fb0790d56b1db4e6a88991
c8723590f47e339de0e2e4c49df10c9c53561969 c2a7a9cc9782446e4b9dbd7bd46ed3e1009deb20
cb7c8c63f5cc2ad0b69453682f040a96b35a106a 4a37cf66f1272504043d22d4bcdad5fb921873e6
cd3f4814f5b9b01cc9698dee2dfdfe9cba2c713d 21cdaef504d1089a99f8fb624bbe9e6b1f25e609
cd8bd29a0418930afbe9ce44f2e6150511ce5459 942b8d6d26d6942a954e3dc52c72da22df616691
cdf172d9c74865f3e931bb1db090c803451c34e2 cbb0f69e20e8aae34a53fa75d216758ed33dfb25
cf5e4d911ae661829b263b66d96021ea150507a4 c0c4bbcd42f1b8f56ff08e0147363545d012e554
d08cee0adc388e100ba85d1b13b17e71d8efc285 a2244db5c4c0eb99ff784c50794743114fda3b98
d2607954da12ba0f13595f75d927441b55e15366 df3e6fc1efb1feeeb76d9675b13a1cf417a6dda8
d26e39155a1eb8e90b01a26125312cdeb3480cd9 9d194158c1d0f13826dfc8f3bfc296d7a61b517d
d28da2d1bca0f21d333a5278369b62d47c8b1294 67787321a79edb8000351ae2267c21c1d87ae88d
d370db7226c8ed16934f9b57312b31444815c03a 4f50fb6df617aa25c92432d734875598d6a7e978
d4c0851784824cdca2d1df8f45a842d71a706a51 601e37d5aaace07e143a37869a1ab7bfc60ef205
d4c148a5bdb7153108ff3a9ed0f3cc6ea525838d 7fada26b45cf3b72d5c0b2d7ebf2d5a3e48e5080
d561420898adbb31d4021b310de160de987b94d4 517f9545ff20e531ec62f9c0635dddbadcedbf43
d7b6d706c6bba2eff797426959e9f0647a2cc338 04d02818b18d60b3844038d49923a14fed56c7a9
d7f82a9e4f0df01cb59ea6031c63d7a6b871ff91 901be0d9acc59e6189f84dccdeb3eddb17ea770f
d825f90d1c2fda9efb38ab64f223709f3b82f016 d2b680ccaf106d0c2889a8138a19036b817c0ef7
d9afdd60543ccab030cf9466311876c57f3b06d3 167869fcc2d16c8d2b7572cba2437446b554d323
da48d7d182e7e92ad674d32f0f84234fb349d9fe 46674a113f473b5d1710f9d7b1b0d7540081776f
dbec2231e44f7e46ffa280874d57a4d375c7aaf2 406b4d44df1ed4dbcfcecdd5b7e27f986adf19d8
dc252dba430421ccb79f72879a99dab9f03a8bb8 1a7b6129070f8338a24a77131472ce372e2c7afc
ddd822253167167254ff4cf72c52feaa5e4a119a ccaa18927dc150fc17d7da1618a264302019da3f
e09aed71f7e8ebe2d5861658ae949dc1edb04e2d 43b51bbb65405e56b888118852422361f7383d44
e0fd284a05fa6500fffc65357dd884fb2c015ca2 fed5868b3002931206463da45ec85b9959e52d95
e2b62c9a2ed9ea2d03f717415f88b3fe9c6d356d b77d33c3a138335fcc638ac3c24ffc15875f4f6b
e4ab6b7a054901a8fbbc449b2ea4aa3e1507864f 864e4b491c89f83f98581ad3517da433de5256a9
e7462dca7be8ea4994d867f2422115e8a5837252 28c5fc52f222b15ac5671ae4132261b5e418ec7b
e8e8865418be6d93f40a8641038226ca9776fc38 edbb3c98edba9fafbbbc7d4f6fd77fd62002e02a
ea80e4af66d2e103a78d8c7e8321b4f5bcac2964 430a3f6bc2e1127b86aaa9d8222d79559026a28a
ec7839b810f34e9d9d14a71f34f8c72fc2ef3caf ab85bea88c1736bf148ea0a1bc0caf25b0c233ae
eccf2558b0aaacbb69c234af238efda8d4da1b29 1ba7fce581ff3f65f9eb22739e34596413746e40
ed08217169060bf5f3a4c19979ebc5f8610a20f2 91ea4511fce2baaf12ceebc54b4670811f29ff71
efbbc275ddc824882568c47a13f86766ce97d4da 8f561ee21ca7b55775bee1c2c36ffbc7331fd8d7
eff38e2523d070ca34f0fda12890eb71cdff242b df50b1ba2aa0793b5cdad54a373d259720f5e7d8
f0db53dead763ef6e8792e7538c2248f30f5b787 cf2a4f605c9661c3956a1bb49cb35c42b2bcf6db
f1f44b90f3de1bdf423de159ee2e92c368d6b701 becd10fe4ce3bc395304cf96ec28aa9ec2ca0ec7
f2b2cc0a18fd20bdb2506b7de1acbb28599da62d ca8d6e3ea77129173b1379c7a543630f0bc47177
f3949254278e2fb91fff147464d509e3af60acce 08465895d693bb5d5152bb7a668c405df4a70762
f3ad29897c8278ca59c789273b747ca49f464921 9b5fd4e140824b675d68e3e5f2ee42420c1e3bba
f3bc2e9eb33f675eaaa88867110d9efa1d695c47 50b2d0bf4b7e55dde2e38afaa040f08c57db149b
f402c68d25e800145bd1b8b4d74cdd4a3c1bdb7c 501826f22cf72bf7c3406d9193db5e7886ad2aa5
f51f3f8a46b87c3f5b16e340c5dd6648c9df9271 a2bf1ed6580682498a7122b07c673164914c283b
f72dd72396cc6e8cfd13af9a0c30f22cac208b3a e70f800b35e0c2230dd550c1e821db697ce8688d
f94b29554e5378616e253cf049efe18210453e59 95ee2a2c2f1bc16306fd3b9f6257b0e12680d1a9
fbcfc3140e91f14eee2edce9fe958f41aad8e629 1678b3a348fc81abbd6a87cff14b846a921dd494
fc8019f5c428de89aeee9517bba67db9dcfb850d 6d277a15aff694e0f9c6702ac2689d3a4d708730
fca689a971337fd24b1dafa2a5fcddc3645441c0 8e0670b1a52c9de90032f9993b25308943802da1
fd11d2ce684d6e24155586488ceff4e184d7ab58 f199a633aa499e45ab3942702e2d0ab234f4877c