366ebdb75392b45e1ba43915b8f4b7e7d8450a41,DELETE,regular-file,data/Jacob Data/ten_minute_returns.csv,125574598,
c3c879e3d169f99110c400579ffdf1027d6fef13,DELETE,regular-file,data/spy_not_downsampled_2000_2012_clean.hdf,304583576,
4d59496a4fc4e4e1be4c9933db0f7e5b8ace5d4e,DELETE,regular-file,data/spy_not_downsampled_2001_2012_clean.hdf,304583576,
f8b723b5fef8ebfa569c1d9c7c5ad5c2cb466f09,DELETE,regular-file,data/spy_not_downsampled_2012_2013_clean.hdf,59305096,
eb4a22a7791bd2517ff2114c0f328810f0cd508f,DELETE,regular-file,data/spy_raw_2002_3_sec.csv,81435559,
8c290420f83ebb210201d6db2bbbcde8040f2983,DELETE,regular-file,data/spy_raw_2003_3_sec.csv,88171686,
e2fa162e78ebe24130e7c038a112c8d7d5c2b62c,DELETE,regular-file,data/spy_raw_2004_3_sec.csv,86775062,
a87c2d7e1d8a4a2b398a7fd4da44f5b1da34a5f1,DELETE,regular-file,data/spy_raw_2005_3_sec.csv,90393362,
5defc17cdb5d932184bb52ecbef748f80d35ecce,DELETE,regular-file,data/spy_raw_2006_3_sec.csv,93884771,
608f05a9d7e3a93dbdfaa8ba9078f98369f1240a,DELETE,regular-file,data/spy_raw_2007_3_sec.csv,109631184,
472beb1221b9ed666f1279d18b9de09c39e71ea0,DELETE,regular-file,data/spy_raw_2008_3_sec.csv,125968601,
4dfff1ee3482f03d5c86922060bfaa770039e77e,DELETE,regular-file,data/spy_raw_2009_3_sec.csv,125884896,
f715c7f3383805a0cd92e0cb0722d3d6c539e01b,DELETE,regular-file,data/spy_raw_2010_3_sec.csv,127687405,
35bb92a2080cd3848f780aad4a5a661d986a2af8,DELETE,regular-file,data/spy_raw_2011_3_sec.csv,130077911,
0bb421a87061d9614a78e8852cd01c36f8f653fb,DELETE,regular-file,data/spy_raw_2012_3_sec.csv,122889856,
35f9673bb4b51874c86906d42c6c2e7f5d0f0bd8,DELETE,regular-file,data/spy_raw_2013_3_sec.csv,121910204,
581aa19631dc0ea88ae6ce6b87c4f412a1f003db,DELETE,regular-file,data/spy_raw_2014_3_sec.csv,124206307,
77b533c0c23a2970427d6a3475b27427b83ecf76,DELETE,regular-file,results/cond_gp_model.2007_2011.hdf,4865007696,